..\gds\lung\GSE43346\_NORM_GSM1060765.txt	 0
..\gds\breast\GSE16179\_NORM_GSM799178.txt	 0
..\gds\breast\GSE16179\_NORM_GSM799179.txt	 0
..\gds\breast\GSE16179\_NORM_GSM799180.txt	 0
..\gds\breast\GSE16179\_NORM_GSM799181.txt	 0
..\gds\breast\GSE16179\_NORM_GSM799182.txt	 0
..\gds\breast\GSE16179\_NORM_GSM799183.txt	 0
..\gds\breast\GSE16179\_NORM_GSM799184.txt	 0
..\gds\breast\GSE16179\_NORM_GSM799185.txt	 0
..\gds\breast\GSE22035\_NORM_GSM547768.txt	 0
..\gds\breast\GSE22035\_NORM_GSM547769.txt	 0
..\gds\breast\GSE22035\_NORM_GSM547770.txt	 0
..\gds\breast\GSE22035\_NORM_GSM547771.txt	 0
..\gds\breast\GSE22035\_NORM_GSM547772.txt	 0
..\gds\breast\GSE22035\_NORM_GSM547773.txt	 0
..\gds\breast\GSE22035\_NORM_GSM547774.txt	 0
..\gds\breast\GSE22035\_NORM_GSM547775.txt	 0
..\gds\breast\GSE22035\_NORM_GSM547776.txt	 0
..\gds\breast\GSE22035\_NORM_GSM547777.txt	 0
..\gds\breast\GSE22035\_NORM_GSM547778.txt	 0
..\gds\breast\GSE22035\_NORM_GSM547779.txt	 0
..\gds\breast\GSE22035\_NORM_GSM547780.txt	 0
..\gds\breast\GSE22035\_NORM_GSM547781.txt	 0
..\gds\breast\GSE22035\_NORM_GSM547782.txt	 0
..\gds\breast\GSE22035\_NORM_GSM547783.txt	 0
..\gds\breast\GSE22035\_NORM_GSM547784.txt	 0
..\gds\breast\GSE22035\_NORM_GSM547785.txt	 0
..\gds\breast\GSE22035\_NORM_GSM547786.txt	 0
..\gds\breast\GSE22035\_NORM_GSM547787.txt	 0
..\gds\breast\GSE22035\_NORM_GSM547788.txt	 0
..\gds\breast\GSE22035\_NORM_GSM547789.txt	 0
..\gds\breast\GSE22035\_NORM_GSM547790.txt	 0
..\gds\breast\GSE22035\_NORM_GSM547791.txt	 0
..\gds\breast\GSE22035\_NORM_GSM547792.txt	 0
..\gds\breast\GSE22035\_NORM_GSM547793.txt	 0
..\gds\breast\GSE22035\_NORM_GSM547794.txt	 0
..\gds\breast\GSE22035\_NORM_GSM547795.txt	 0
..\gds\breast\GSE22035\_NORM_GSM547796.txt	 0
..\gds\breast\GSE22035\_NORM_GSM547797.txt	 0
..\gds\breast\GSE22035\_NORM_GSM547798.txt	 0
..\gds\breast\GSE22035\_NORM_GSM547799.txt	 0
..\gds\breast\GSE22035\_NORM_GSM547800.txt	 0
..\gds\breast\GSE22035\_NORM_GSM547801.txt	 0
..\gds\breast\GSE22035\_NORM_GSM547802.txt	 0
..\gds\breast\GSE22035\_NORM_GSM547803.txt	 0
..\gds\breast\GSE27444\_NORM_GSM678312.txt	 0
..\gds\breast\GSE27444\_NORM_GSM678323.txt	 0
..\gds\breast\GSE27444\_NORM_GSM678324.txt	 0
..\gds\breast\GSE27444\_NORM_GSM678325.txt	 0
..\gds\breast\GSE27473\_NORM_GSM678802.txt	 0
..\gds\breast\GSE27473\_NORM_GSM678803.txt	 0
..\gds\breast\GSE27473\_NORM_GSM678804.txt	 0
..\gds\breast\GSE27473\_NORM_GSM678805.txt	 0
..\gds\breast\GSE27473\_NORM_GSM678806.txt	 0
..\gds\breast\GSE27473\_NORM_GSM678807.txt	 0
..\gds\breast\GSE27515\_NORM_GSM679719.txt	 0
..\gds\breast\GSE27515\_NORM_GSM679720.txt	 0
..\gds\breast\GSE27515\_NORM_GSM679721.txt	 0
..\gds\breast\GSE27515\_NORM_GSM679722.txt	 0
..\gds\breast\GSE27515\_NORM_GSM679723.txt	 0
..\gds\breast\GSE27515\_NORM_GSM679724.txt	 0
..\gds\breast\GSE27515\_NORM_GSM679725.txt	 0
..\gds\breast\GSE27515\_NORM_GSM679726.txt	 0
..\gds\breast\GSE27515\_NORM_GSM679727.txt	 0
..\gds\breast\GSE33658\_NORM_GSM832390.txt	 0
..\gds\breast\GSE33658\_NORM_GSM832391.txt	 0
..\gds\breast\GSE33658\_NORM_GSM832392.txt	 0
..\gds\breast\GSE33658\_NORM_GSM832393.txt	 0
..\gds\breast\GSE33658\_NORM_GSM832394.txt	 0
..\gds\breast\GSE33658\_NORM_GSM832395.txt	 0
..\gds\breast\GSE33658\_NORM_GSM832396.txt	 0
..\gds\breast\GSE33658\_NORM_GSM832397.txt	 0
..\gds\breast\GSE33658\_NORM_GSM832398.txt	 0
..\gds\breast\GSE33658\_NORM_GSM832399.txt	 0
..\gds\breast\GSE33658\_NORM_GSM832400.txt	 0
..\gds\breast\GSE33658\_NORM_GSM832401.txt	 0
..\gds\breast\GSE33658\_NORM_GSM832402.txt	 0
..\gds\breast\GSE33658\_NORM_GSM832403.txt	 0
..\gds\breast\GSE33658\_NORM_GSM832404.txt	 0
..\gds\breast\GSE33658\_NORM_GSM832405.txt	 0
..\gds\breast\GSE22035\_NORM_GSM547804.txt	 0
..\gds\breast\GSE22035\_NORM_GSM547805.txt	 0
..\gds\breast\GSE22035\_NORM_GSM547806.txt	 0
..\gds\breast\GSE22035\_NORM_GSM547807.txt	 0
..\gds\breast\GSE22035\_NORM_GSM547808.txt	 0
..\gds\prostate\GSE15392\_NORM_GSM386297.txt	 1
..\gds\prostate\GSE15392\_NORM_GSM386298.txt	 1
..\gds\prostate\GSE15392\_NORM_GSM386299.txt	 1
..\gds\prostate\GSE15392\_NORM_GSM386300.txt	 1
..\gds\prostate\GSE15392\_NORM_GSM386301.txt	 1
..\gds\prostate\GSE15392\_NORM_GSM386302.txt	 1
..\gds\prostate\GSE15392\_NORM_GSM386303.txt	 1
..\gds\prostate\GSE15392\_NORM_GSM386304.txt	 1
..\gds\prostate\GSE15392\_NORM_GSM386305.txt	 1
..\gds\prostate\GSE15392\_NORM_GSM386306.txt	 1
..\gds\prostate\GSE15392\_NORM_GSM386307.txt	 1
..\gds\prostate\GSE15392\_NORM_GSM386308.txt	 1
..\gds\prostate\GSE15392\_NORM_GSM386309.txt	 1
..\gds\prostate\GSE15392\_NORM_GSM386310.txt	 1
..\gds\prostate\GSE15392\_NORM_GSM386311.txt	 1
..\gds\prostate\GSE15392\_NORM_GSM386312.txt	 1
..\gds\prostate\GSE15392\_NORM_GSM386313.txt	 1
..\gds\prostate\GSE15392\_NORM_GSM386314.txt	 1
..\gds\prostate\GSE15392\_NORM_GSM386315.txt	 1
..\gds\prostate\GSE15392\_NORM_GSM386316.txt	 1
..\gds\prostate\GSE15392\_NORM_GSM386317.txt	 1
..\gds\prostate\GSE15392\_NORM_GSM386318.txt	 1
..\gds\prostate\GSE15392\_NORM_GSM386319.txt	 1
..\gds\prostate\GSE15392\_NORM_GSM386320.txt	 1
..\gds\prostate\GSE15392\_NORM_GSM386321.txt	 1
..\gds\prostate\GSE15392\_NORM_GSM386322.txt	 1
..\gds\prostate\GSE15392\_NORM_GSM386323.txt	 1
..\gds\prostate\GSE15392\_NORM_GSM386324.txt	 1
..\gds\prostate\GSE15392\_NORM_GSM386325.txt	 1
..\gds\prostate\GSE15392\_NORM_GSM386326.txt	 1
..\gds\prostate\GSE15392\_NORM_GSM386327.txt	 1
..\gds\prostate\GSE15392\_NORM_GSM386328.txt	 1
..\gds\prostate\GSE15392\_NORM_GSM386329.txt	 1
..\gds\prostate\GSE15392\_NORM_GSM386330.txt	 1
..\gds\prostate\GSE15392\_NORM_GSM386331.txt	 1
..\gds\prostate\GSE15392\_NORM_GSM386332.txt	 1
..\gds\prostate\GSE21887\_NORM_GSM544229.txt	 1
..\gds\prostate\GSE21887\_NORM_GSM544230.txt	 1
..\gds\prostate\GSE21887\_NORM_GSM544231.txt	 1
..\gds\prostate\GSE21887\_NORM_GSM544232.txt	 1
..\gds\prostate\GSE21887\_NORM_GSM544233.txt	 1
..\gds\prostate\GSE21887\_NORM_GSM544234.txt	 1
..\gds\prostate\GSE21887\_NORM_GSM544235.txt	 1
..\gds\prostate\GSE21887\_NORM_GSM544236.txt	 1
..\gds\prostate\GSE21887\_NORM_GSM544237.txt	 1
..\gds\prostate\GSE21887\_NORM_GSM544238.txt	 1
..\gds\prostate\GSE21887\_NORM_GSM544239.txt	 1
..\gds\prostate\GSE21887\_NORM_GSM544240.txt	 1
..\gds\prostate\GSE22606\_NORM_GSM560828.txt	 1
..\gds\prostate\GSE22606\_NORM_GSM560829.txt	 1
..\gds\prostate\GSE22606\_NORM_GSM560830.txt	 1
..\gds\prostate\GSE22606\_NORM_GSM560831.txt	 1
..\gds\prostate\GSE22606\_NORM_GSM560832.txt	 1
..\gds\prostate\GSE22606\_NORM_GSM560833.txt	 1
..\gds\prostate\GSE22606\_NORM_GSM560834.txt	 1
..\gds\prostate\GSE22606\_NORM_GSM560835.txt	 1
..\gds\prostate\GSE22606\_NORM_GSM560836.txt	 1
..\gds\prostate\GSE22606\_NORM_GSM560837.txt	 1
..\gds\prostate\GSE22606\_NORM_GSM560838.txt	 1
..\gds\prostate\GSE22606\_NORM_GSM560839.txt	 1
..\gds\prostate\GSE27914\_NORM_GSM689410.txt	 1
..\gds\prostate\GSE27914\_NORM_GSM689411.txt	 1
..\gds\prostate\GSE27914\_NORM_GSM689412.txt	 1
..\gds\prostate\GSE27914\_NORM_GSM689413.txt	 1
..\gds\prostate\GSE27914\_NORM_GSM689414.txt	 1
..\gds\prostate\GSE27914\_NORM_GSM689415.txt	 1
..\gds\prostate\GSE27914\_NORM_GSM689416.txt	 1
..\gds\prostate\GSE27914\_NORM_GSM689417.txt	 1
..\gds\prostate\GSE27914\_NORM_GSM689418.txt	 1
..\gds\prostate\GSE27914\_NORM_GSM689419.txt	 1
..\gds\prostate\GSE27914\_NORM_GSM689420.txt	 1
..\gds\prostate\GSE27914\_NORM_GSM689421.txt	 1
..\gds\prostate\GSE27914\_NORM_GSM689422.txt	 1
..\gds\prostate\GSE27914\_NORM_GSM689423.txt	 1
..\gds\prostate\GSE27914\_NORM_GSM689424.txt	 1
..\gds\prostate\GSE27914\_NORM_GSM689425.txt	 1
..\gds\prostate\GSE27914\_NORM_GSM689426.txt	 1
..\gds\prostate\GSE27914\_NORM_GSM689427.txt	 1
..\gds\prostate\GSE27914\_NORM_GSM689428.txt	 1
..\gds\prostate\GSE27914\_NORM_GSM689429.txt	 1
..\gds\prostate\GSE27914\_NORM_GSM689430.txt	 1
..\gds\prostate\GSE27914\_NORM_GSM689431.txt	 1
..\gds\prostate\GSE27914\_NORM_GSM689432.txt	 1
..\gds\prostate\GSE27914\_NORM_GSM689433.txt	 1
..\gds\prostate\GSE27914\_NORM_GSM689434.txt	 1
..\gds\colon\GSE15395\_NORM_GSM386401.txt	 2
..\gds\colon\GSE15395\_NORM_GSM386402.txt	 2
..\gds\colon\GSE15395\_NORM_GSM386403.txt	 2
..\gds\colon\GSE15395\_NORM_GSM386404.txt	 2
..\gds\colon\GSE15395\_NORM_GSM386405.txt	 2
..\gds\colon\GSE15395\_NORM_GSM386406.txt	 2
..\gds\colon\GSE15395\_NORM_GSM386407.txt	 2
..\gds\colon\GSE15395\_NORM_GSM386408.txt	 2
..\gds\colon\GSE15395\_NORM_GSM386409.txt	 2
..\gds\colon\GSE15395\_NORM_GSM386410.txt	 2
..\gds\colon\GSE15395\_NORM_GSM386411.txt	 2
..\gds\colon\GSE15395\_NORM_GSM386412.txt	 2
..\gds\colon\GSE15395\_NORM_GSM386413.txt	 2
..\gds\colon\GSE15395\_NORM_GSM386414.txt	 2
..\gds\colon\GSE15395\_NORM_GSM386415.txt	 2
..\gds\colon\GSE15395\_NORM_GSM386416.txt	 2
..\gds\colon\GSE15395\_NORM_GSM386417.txt	 2
..\gds\colon\GSE15395\_NORM_GSM386418.txt	 2
..\gds\colon\GSE15395\_NORM_GSM386419.txt	 2
..\gds\colon\GSE15395\_NORM_GSM386420.txt	 2
..\gds\colon\GSE15395\_NORM_GSM386421.txt	 2
..\gds\colon\GSE15395\_NORM_GSM386422.txt	 2
..\gds\colon\GSE15395\_NORM_GSM386423.txt	 2
..\gds\colon\GSE15395\_NORM_GSM386424.txt	 2
..\gds\colon\GSE15395\_NORM_GSM386425.txt	 2
..\gds\colon\GSE15395\_NORM_GSM386426.txt	 2
..\gds\colon\GSE15395\_NORM_GSM386427.txt	 2
..\gds\colon\GSE15395\_NORM_GSM386428.txt	 2
..\gds\colon\GSE15395\_NORM_GSM386429.txt	 2
..\gds\colon\GSE15395\_NORM_GSM386430.txt	 2
..\gds\colon\GSE15395\_NORM_GSM386431.txt	 2
..\gds\colon\GSE15395\_NORM_GSM386432.txt	 2
..\gds\colon\GSE15395\_NORM_GSM386433.txt	 2
..\gds\colon\GSE15395\_NORM_GSM386434.txt	 2
..\gds\colon\GSE15395\_NORM_GSM386435.txt	 2
..\gds\colon\GSE15395\_NORM_GSM386436.txt	 2
..\gds\colon\GSE15395\_NORM_GSM386437.txt	 2
..\gds\colon\GSE15395\_NORM_GSM386438.txt	 2
..\gds\colon\GSE15395\_NORM_GSM386439.txt	 2
..\gds\colon\GSE15395\_NORM_GSM386440.txt	 2
..\gds\colon\GSE15395\_NORM_GSM386441.txt	 2
..\gds\colon\GSE15395\_NORM_GSM386442.txt	 2
..\gds\colon\GSE15395\_NORM_GSM386443.txt	 2
..\gds\colon\GSE15395\_NORM_GSM386444.txt	 2
..\gds\colon\GSE15395\_NORM_GSM386445.txt	 2
..\gds\colon\GSE15395\_NORM_GSM386446.txt	 2
..\gds\colon\GSE15395\_NORM_GSM386447.txt	 2
..\gds\colon\GSE15395\_NORM_GSM386448.txt	 2
..\gds\colon\GSE15395\_NORM_GSM386449.txt	 2
..\gds\colon\GSE15395\_NORM_GSM386450.txt	 2
..\gds\colon\GSE15395\_NORM_GSM386451.txt	 2
..\gds\colon\GSE15395\_NORM_GSM386452.txt	 2
..\gds\colon\GSE15395\_NORM_GSM386453.txt	 2
..\gds\colon\GSE15395\_NORM_GSM386454.txt	 2
..\gds\colon\GSE15395\_NORM_GSM386455.txt	 2
..\gds\colon\GSE15395\_NORM_GSM386456.txt	 2
..\gds\colon\GSE15395\_NORM_GSM386457.txt	 2
..\gds\colon\GSE15395\_NORM_GSM386458.txt	 2
..\gds\colon\GSE18088\_NORM_GSM452148.txt	 2
..\gds\colon\GSE18088\_NORM_GSM452149.txt	 2
..\gds\colon\GSE18088\_NORM_GSM452150.txt	 2
..\gds\colon\GSE18088\_NORM_GSM452151.txt	 2
..\gds\colon\GSE18088\_NORM_GSM452152.txt	 2
..\gds\colon\GSE18088\_NORM_GSM452153.txt	 2
..\gds\colon\GSE18088\_NORM_GSM452154.txt	 2
..\gds\colon\GSE18088\_NORM_GSM452155.txt	 2
..\gds\colon\GSE18088\_NORM_GSM452156.txt	 2
..\gds\colon\GSE18088\_NORM_GSM452157.txt	 2
..\gds\colon\GSE18088\_NORM_GSM452158.txt	 2
..\gds\colon\GSE18088\_NORM_GSM452159.txt	 2
..\gds\colon\GSE18088\_NORM_GSM452160.txt	 2
..\gds\colon\GSE18088\_NORM_GSM452161.txt	 2
..\gds\colon\GSE18088\_NORM_GSM452162.txt	 2
..\gds\colon\GSE18088\_NORM_GSM452163.txt	 2
..\gds\colon\GSE18088\_NORM_GSM452164.txt	 2
..\gds\colon\GSE18088\_NORM_GSM452165.txt	 2
..\gds\colon\GSE18088\_NORM_GSM452166.txt	 2
..\gds\colon\GSE18088\_NORM_GSM452167.txt	 2
..\gds\colon\GSE18088\_NORM_GSM452168.txt	 2
..\gds\colon\GSE18088\_NORM_GSM452169.txt	 2
..\gds\colon\GSE18088\_NORM_GSM452170.txt	 2
..\gds\colon\GSE18088\_NORM_GSM452171.txt	 2
..\gds\colon\GSE18088\_NORM_GSM452172.txt	 2
..\gds\colon\GSE18088\_NORM_GSM452173.txt	 2
..\gds\colon\GSE18088\_NORM_GSM452174.txt	 2
..\gds\uterus\GSE17025\_NORM_GSM425848.txt	 3
..\gds\uterus\GSE17025\_NORM_GSM425849.txt	 3
..\gds\uterus\GSE17025\_NORM_GSM425850.txt	 3
..\gds\uterus\GSE17025\_NORM_GSM425851.txt	 3
..\gds\uterus\GSE17025\_NORM_GSM425852.txt	 3
..\gds\uterus\GSE17025\_NORM_GSM425853.txt	 3
..\gds\uterus\GSE17025\_NORM_GSM425854.txt	 3
..\gds\uterus\GSE17025\_NORM_GSM425855.txt	 3
..\gds\uterus\GSE17025\_NORM_GSM425856.txt	 3
..\gds\uterus\GSE17025\_NORM_GSM425857.txt	 3
..\gds\uterus\GSE17025\_NORM_GSM425858.txt	 3
..\gds\uterus\GSE17025\_NORM_GSM425859.txt	 3
..\gds\uterus\GSE17025\_NORM_GSM425860.txt	 3
..\gds\uterus\GSE17025\_NORM_GSM425861.txt	 3
..\gds\uterus\GSE17025\_NORM_GSM425862.txt	 3
..\gds\uterus\GSE17025\_NORM_GSM425863.txt	 3
..\gds\uterus\GSE17025\_NORM_GSM425864.txt	 3
..\gds\uterus\GSE17025\_NORM_GSM425865.txt	 3
..\gds\uterus\GSE17025\_NORM_GSM425866.txt	 3
..\gds\uterus\GSE17025\_NORM_GSM425867.txt	 3
..\gds\uterus\GSE17025\_NORM_GSM425868.txt	 3
..\gds\uterus\GSE17025\_NORM_GSM425869.txt	 3
..\gds\uterus\GSE17025\_NORM_GSM425870.txt	 3
..\gds\uterus\GSE17025\_NORM_GSM425871.txt	 3
..\gds\uterus\GSE17025\_NORM_GSM425872.txt	 3
..\gds\uterus\GSE17025\_NORM_GSM425873.txt	 3
..\gds\uterus\GSE17025\_NORM_GSM425877.txt	 3
..\gds\uterus\GSE17025\_NORM_GSM425878.txt	 3
..\gds\uterus\GSE17025\_NORM_GSM425879.txt	 3
..\gds\uterus\GSE17025\_NORM_GSM425880.txt	 3
..\gds\uterus\GSE17025\_NORM_GSM425881.txt	 3
..\gds\uterus\GSE17025\_NORM_GSM425882.txt	 3
..\gds\uterus\GSE17025\_NORM_GSM425883.txt	 3
..\gds\uterus\GSE17025\_NORM_GSM425884.txt	 3
..\gds\uterus\GSE17025\_NORM_GSM425885.txt	 3
..\gds\uterus\GSE17025\_NORM_GSM425886.txt	 3
..\gds\uterus\GSE17025\_NORM_GSM425887.txt	 3
..\gds\uterus\GSE17025\_NORM_GSM425888.txt	 3
..\gds\uterus\GSE17025\_NORM_GSM425889.txt	 3
..\gds\uterus\GSE17025\_NORM_GSM425890.txt	 3
..\gds\uterus\GSE17025\_NORM_GSM425891.txt	 3
..\gds\uterus\GSE17025\_NORM_GSM425892.txt	 3
..\gds\uterus\GSE17025\_NORM_GSM425893.txt	 3
..\gds\uterus\GSE17025\_NORM_GSM425894.txt	 3
..\gds\uterus\GSE17025\_NORM_GSM425895.txt	 3
..\gds\uterus\GSE17025\_NORM_GSM425896.txt	 3
..\gds\uterus\GSE17025\_NORM_GSM425897.txt	 3
..\gds\uterus\GSE17025\_NORM_GSM425898.txt	 3
..\gds\uterus\GSE17025\_NORM_GSM425899.txt	 3
..\gds\uterus\GSE17025\_NORM_GSM425900.txt	 3
..\gds\uterus\GSE17025\_NORM_GSM425901.txt	 3
..\gds\uterus\GSE17025\_NORM_GSM425902.txt	 3
..\gds\uterus\GSE17025\_NORM_GSM425903.txt	 3
..\gds\uterus\GSE17025\_NORM_GSM425904.txt	 3
..\gds\uterus\GSE17025\_NORM_GSM425905.txt	 3
..\gds\uterus\GSE17025\_NORM_GSM425906.txt	 3
..\gds\uterus\GSE17025\_NORM_GSM425907.txt	 3
..\gds\uterus\GSE17025\_NORM_GSM425908.txt	 3
..\gds\uterus\GSE17025\_NORM_GSM425909.txt	 3
..\gds\uterus\GSE17025\_NORM_GSM425910.txt	 3
..\gds\uterus\GSE17025\_NORM_GSM425911.txt	 3
..\gds\uterus\GSE17025\_NORM_GSM425912.txt	 3
..\gds\uterus\GSE17025\_NORM_GSM425913.txt	 3
..\gds\uterus\GSE17025\_NORM_GSM425914.txt	 3
..\gds\uterus\GSE17025\_NORM_GSM425915.txt	 3
..\gds\uterus\GSE17025\_NORM_GSM425916.txt	 3
..\gds\uterus\GSE17025\_NORM_GSM425917.txt	 3
..\gds\uterus\GSE17025\_NORM_GSM425918.txt	 3
..\gds\uterus\GSE17025\_NORM_GSM425919.txt	 3
..\gds\uterus\GSE17025\_NORM_GSM425920.txt	 3
..\gds\uterus\GSE17025\_NORM_GSM425921.txt	 3
..\gds\uterus\GSE17025\_NORM_GSM425922.txt	 3
..\gds\uterus\GSE17025\_NORM_GSM425923.txt	 3
..\gds\uterus\GSE17025\_NORM_GSM425924.txt	 3
..\gds\uterus\GSE17025\_NORM_GSM425925.txt	 3
..\gds\uterus\GSE17025\_NORM_GSM425926.txt	 3
..\gds\uterus\GSE17025\_NORM_GSM425927.txt	 3
..\gds\uterus\GSE17025\_NORM_GSM425928.txt	 3
..\gds\uterus\GSE17025\_NORM_GSM425929.txt	 3
..\gds\uterus\GSE17025\_NORM_GSM425930.txt	 3
..\gds\endomentrium\GSE12446\_NORM_GSM312561.txt	 3
..\gds\endomentrium\GSE12446\_NORM_GSM312563.txt	 3
..\gds\endomentrium\GSE12446\_NORM_GSM312564.txt	 3
..\gds\endomentrium\GSE12446\_NORM_GSM312565.txt	 3
..\gds\endomentrium\GSE12446\_NORM_GSM312566.txt	 3
..\gds\lung\GSE43346\_NORM_GSM1060744.txt	 4
..\gds\kidney\GSE36895\_NORM_GSM904989.txt	 4
..\gds\kidney\GSE36895\_NORM_GSM904992.txt	 4
..\gds\kidney\GSE36895\_NORM_GSM904994.txt	 4
..\gds\kidney\GSE36895\_NORM_GSM904995.txt	 4
..\gds\kidney\GSE36895\_NORM_GSM904996.txt	 4
..\gds\kidney\GSE36895\_NORM_GSM904998.txt	 4
..\gds\kidney\GSE36895\_NORM_GSM904999.txt	 4
..\gds\kidney\GSE36895\_NORM_GSM905000.txt	 4
..\gds\kidney\GSE36895\_NORM_GSM905002.txt	 4
..\gds\kidney\GSE36895\_NORM_GSM905003.txt	 4
..\gds\kidney\GSE36895\_NORM_GSM905004.txt	 4
..\gds\kidney\GSE36895\_NORM_GSM905006.txt	 4
..\gds\kidney\GSE36895\_NORM_GSM905007.txt	 4
..\gds\kidney\GSE36895\_NORM_GSM905008.txt	 4
..\gds\kidney\GSE36895\_NORM_GSM905009.txt	 4
..\gds\kidney\GSE36895\_NORM_GSM905011.txt	 4
..\gds\kidney\GSE36895\_NORM_GSM905012.txt	 4
..\gds\kidney\GSE36895\_NORM_GSM905013.txt	 4
..\gds\kidney\GSE36895\_NORM_GSM905025.txt	 4
..\gds\kidney\GSE36895\_NORM_GSM905026.txt	 4
..\gds\kidney\GSE36895\_NORM_GSM905027.txt	 4
..\gds\kidney\GSE36895\_NORM_GSM905028.txt	 4
..\gds\kidney\GSE36895\_NORM_GSM905029.txt	 4
..\gds\kidney\GSE36895\_NORM_GSM905030.txt	 4
..\gds\kidney\GSE36895\_NORM_GSM905031.txt	 4
..\gds\kidney\GSE36895\_NORM_GSM905032.txt	 4
..\gds\kidney\GSE36895\_NORM_GSM905033.txt	 4
..\gds\kidney\GSE36895\_NORM_GSM905034.txt	 4
..\gds\kidney\GSE36895\_NORM_GSM905035.txt	 4
..\gds\kidney\GSE36895\_NORM_GSM905036.txt	 4
..\gds\kidney\GSE36895\_NORM_GSM905037.txt	 4
..\gds\kidney\GSE36895\_NORM_GSM905038.txt	 4
..\gds\kidney\GSE36895\_NORM_GSM905039.txt	 4
..\gds\kidney\GSE36895\_NORM_GSM905040.txt	 4
..\gds\kidney\GSE36895\_NORM_GSM905041.txt	 4
..\gds\kidney\GSE36895\_NORM_GSM905042.txt	 4
..\gds\kidney\GSE36895\_NORM_GSM905043.txt	 4
..\gds\kidney\GSE36895\_NORM_GSM905044.txt	 4
..\gds\kidney\GSE36895\_NORM_GSM905045.txt	 4
..\gds\kidney\GSE36895\_NORM_GSM905046.txt	 4
..\gds\kidney\GSE36895\_NORM_GSM905047.txt	 4
..\gds\kidney\GSE36895\_NORM_GSM905048.txt	 4
..\gds\kidney\GSE36895\_NORM_GSM905049.txt	 4
..\gds\kidney\GSE36895\_NORM_GSM905050.txt	 4
..\gds\kidney\GSE36895\_NORM_GSM905051.txt	 4
..\gds\kidney\GSE36895\_NORM_GSM905052.txt	 4
..\gds\kidney\GSE36895\_NORM_GSM905053.txt	 4
..\gds\kidney\GSE36895\_NORM_GSM905054.txt	 4
..\gds\kidney\GSE36895\_NORM_GSM905055.txt	 4
..\gds\kidney\GSE36895\_NORM_GSM905056.txt	 4
..\gds\kidney\GSE36895\_NORM_GSM905057.txt	 4
..\gds\kidney\GSE36895\_NORM_GSM905058.txt	 4
..\gds\kidney\GSE36895\_NORM_GSM905059.txt	 4
..\gds\kidney\GSE36895\_NORM_GSM905060.txt	 4
..\gds\kidney\GSE36895\_NORM_GSM905061.txt	 4
..\gds\kidney\GSE36895\_NORM_GSM905062.txt	 4
..\gds\kidney\GSE36895\_NORM_GSM905063.txt	 4
..\gds\kidney\GSE36895\_NORM_GSM905064.txt	 4
..\gds\kidney\GSE36895\_NORM_GSM905065.txt	 4
..\gds\kidney\GSE36895\_NORM_GSM905066.txt	 4
..\gds\lung\GSE10245\_NORM_GSM258561.txt	 5
..\gds\lung\GSE10245\_NORM_GSM258562.txt	 5
..\gds\lung\GSE10245\_NORM_GSM258563.txt	 5
..\gds\lung\GSE10245\_NORM_GSM258564.txt	 5
..\gds\lung\GSE10245\_NORM_GSM258565.txt	 5
..\gds\lung\GSE10245\_NORM_GSM258566.txt	 5
..\gds\lung\GSE10245\_NORM_GSM258567.txt	 5
..\gds\lung\GSE10245\_NORM_GSM258568.txt	 5
..\gds\lung\GSE10245\_NORM_GSM258569.txt	 5
..\gds\lung\GSE10245\_NORM_GSM258570.txt	 5
..\gds\lung\GSE10245\_NORM_GSM258571.txt	 5
..\gds\lung\GSE10245\_NORM_GSM258572.txt	 5
..\gds\lung\GSE10245\_NORM_GSM258573.txt	 5
..\gds\lung\GSE10245\_NORM_GSM258574.txt	 5
..\gds\lung\GSE10245\_NORM_GSM258575.txt	 5
..\gds\lung\GSE10245\_NORM_GSM258576.txt	 5
..\gds\lung\GSE10245\_NORM_GSM258577.txt	 5
..\gds\lung\GSE10245\_NORM_GSM258578.txt	 5
..\gds\lung\GSE10245\_NORM_GSM258579.txt	 5
..\gds\lung\GSE10245\_NORM_GSM258580.txt	 5
..\gds\lung\GSE10245\_NORM_GSM258581.txt	 5
..\gds\lung\GSE10245\_NORM_GSM258582.txt	 5
..\gds\lung\GSE10245\_NORM_GSM258583.txt	 5
..\gds\lung\GSE10245\_NORM_GSM258584.txt	 5
..\gds\lung\GSE10245\_NORM_GSM258585.txt	 5
..\gds\lung\GSE10245\_NORM_GSM258586.txt	 5
..\gds\lung\GSE10245\_NORM_GSM258587.txt	 5
..\gds\lung\GSE10245\_NORM_GSM258588.txt	 5
..\gds\lung\GSE10245\_NORM_GSM258589.txt	 5
..\gds\lung\GSE10245\_NORM_GSM258590.txt	 5
..\gds\lung\GSE10245\_NORM_GSM258591.txt	 5
..\gds\lung\GSE10245\_NORM_GSM258592.txt	 5
..\gds\lung\GSE10245\_NORM_GSM258593.txt	 5
..\gds\lung\GSE10245\_NORM_GSM258594.txt	 5
..\gds\lung\GSE10245\_NORM_GSM258595.txt	 5
..\gds\lung\GSE10245\_NORM_GSM258596.txt	 5
..\gds\lung\GSE10245\_NORM_GSM258597.txt	 5
..\gds\lung\GSE10245\_NORM_GSM258598.txt	 5
..\gds\lung\GSE10245\_NORM_GSM258599.txt	 5
..\gds\lung\GSE10245\_NORM_GSM258600.txt	 5
..\gds\lung\GSE10245\_NORM_GSM258601.txt	 5
..\gds\lung\GSE10245\_NORM_GSM258602.txt	 5
..\gds\lung\GSE10245\_NORM_GSM258603.txt	 5
..\gds\lung\GSE10245\_NORM_GSM258604.txt	 5
..\gds\lung\GSE10245\_NORM_GSM258605.txt	 5
..\gds\lung\GSE10245\_NORM_GSM258606.txt	 5
..\gds\lung\GSE10245\_NORM_GSM258607.txt	 5
..\gds\lung\GSE10245\_NORM_GSM258608.txt	 5
..\gds\lung\GSE43346\_NORM_GSM1060752.txt	 5
..\gds\lung\GSE43346\_NORM_GSM1060768.txt	 5
..\gds\lung\GSE43346\_NORM_GSM1060769.txt	 5
..\gds\lung\GSE43346\_NORM_GSM1060770.txt	 5
..\gds\lung\GSE43346\_NORM_GSM1060771.txt	 5
..\gds\lung\GSE43346\_NORM_GSM1060772.txt	 5
..\gds\lung\GSE43346\_NORM_GSM1060773.txt	 5
..\gds\lung\GSE43346\_NORM_GSM1060774.txt	 5
..\gds\lung\GSE43346\_NORM_GSM1060775.txt	 5
..\gds\lung\GSE43346\_NORM_GSM1060776.txt	 5
..\gds\lung\GSE43346\_NORM_GSM1060777.txt	 5
..\gds\lung\GSE43346\_NORM_GSM1060778.txt	 5
..\gds\lung\GSE43346\_NORM_GSM1060779.txt	 5
..\gds\lung\GSE43346\_NORM_GSM1060780.txt	 5
..\gds\lung\GSE43346\_NORM_GSM1060781.txt	 5
..\gds\lung\GSE43346\_NORM_GSM1060782.txt	 5
..\gds\lung\GSE43346\_NORM_GSM1060783.txt	 5
..\gds\lung\GSE43346\_NORM_GSM1060784.txt	 5
..\gds\lung\GSE43346\_NORM_GSM1060785.txt	 5
..\gds\lung\GSE43346\_NORM_GSM1060786.txt	 5
..\gds\lung\GSE43346\_NORM_GSM1060787.txt	 5
..\gds\lung\GSE6400\_NORM_GSM147367.txt	 5
..\gds\lung\GSE6400\_NORM_GSM147368.txt	 5
..\gds\lung\GSE6400\_NORM_GSM147369.txt	 5
..\gds\lung\GSE6400\_NORM_GSM147370.txt	 5
..\gds\lung\GSE6400\_NORM_GSM147520.txt	 5
..\gds\lung\GSE6400\_NORM_GSM147521.txt	 5
..\gds\lung\GSE6400\_NORM_GSM147522.txt	 5
..\gds\lung\GSE10245\_NORM_GSM258551.txt	 5
..\gds\lung\GSE10245\_NORM_GSM258552.txt	 5
..\gds\lung\GSE10245\_NORM_GSM258553.txt	 5
..\gds\lung\GSE10245\_NORM_GSM258554.txt	 5
..\gds\lung\GSE10245\_NORM_GSM258555.txt	 5
..\gds\lung\GSE10245\_NORM_GSM258556.txt	 5
..\gds\lung\GSE10245\_NORM_GSM258557.txt	 5
..\gds\lung\GSE10245\_NORM_GSM258558.txt	 5
..\gds\lung\GSE10245\_NORM_GSM258559.txt	 5
..\gds\ovary\GSE10946\_NORM_GSM277446.txt	 6
..\gds\ovary\GSE10946\_NORM_GSM277450.txt	 6
..\gds\ovary\GSE10946\_NORM_GSM277451.txt	 6
..\gds\ovary\GSE10946\_NORM_GSM277452.txt	 6
..\gds\ovary\GSE10946\_NORM_GSM277455.txt	 6
..\gds\ovary\GSE10946\_NORM_GSM277456.txt	 6
..\gds\ovary\GSE10946\_NORM_GSM277457.txt	 6
..\gds\ovary\GSE10946\_NORM_GSM277458.txt	 6
..\gds\ovary\GSE10946\_NORM_GSM277459.txt	 6
..\gds\ovary\GSE10946\_NORM_GSM277460.txt	 6
..\gds\ovary\GSE34526\_NORM_GSM850527.txt	 6
..\gds\ovary\GSE34526\_NORM_GSM850528.txt	 6
..\gds\ovary\GSE34526\_NORM_GSM850529.txt	 6
..\gds\ovary\GSE34526\_NORM_GSM850530.txt	 6
..\gds\ovary\GSE34526\_NORM_GSM850531.txt	 6
..\gds\ovary\GSE34526\_NORM_GSM850532.txt	 6
..\gds\ovary\GSE34526\_NORM_GSM850533.txt	 6
..\gds\ovary\GSE34526\_NORM_GSM850534.txt	 6
..\gds\ovary\GSE34526\_NORM_GSM850535.txt	 6
..\gds\ovary\GSE34526\_NORM_GSM850536.txt	 6
..\gds\ovary\GSE8157\_NORM_GSM201542.txt	 6
..\gds\ovary\GSE8157\_NORM_GSM201543.txt	 6
..\gds\ovary\GSE8157\_NORM_GSM201544.txt	 6
..\gds\ovary\GSE8157\_NORM_GSM201545.txt	 6
..\gds\ovary\GSE8157\_NORM_GSM201829.txt	 6
..\gds\ovary\GSE8157\_NORM_GSM201830.txt	 6
..\gds\ovary\GSE8157\_NORM_GSM201831.txt	 6
..\gds\ovary\GSE8157\_NORM_GSM201832.txt	 6
..\gds\ovary\GSE8157\_NORM_GSM201833.txt	 6
..\gds\ovary\GSE8157\_NORM_GSM201834.txt	 6
..\gds\ovary\GSE8157\_NORM_GSM201835.txt	 6
..\gds\ovary\GSE8157\_NORM_GSM201836.txt	 6
..\gds\ovary\GSE8157\_NORM_GSM201837.txt	 6
..\gds\ovary\GSE8157\_NORM_GSM201838.txt	 6
..\gds\ovary\GSE8157\_NORM_GSM201839.txt	 6
..\gds\ovary\GSE8157\_NORM_GSM201840.txt	 6
..\gds\ovary\GSE8157\_NORM_GSM201841.txt	 6
..\gds\ovary\GSE8157\_NORM_GSM201842.txt	 6
..\gds\ovary\GSE8157\_NORM_GSM201843.txt	 6
..\gds\ovary\GSE8157\_NORM_GSM201844.txt	 6
..\gds\ovary\GSE8157\_NORM_GSM201849.txt	 6
..\gds\ovary\GSE8157\_NORM_GSM201850.txt	 6
..\gds\ovary\GSE8157\_NORM_GSM201851.txt	 6
..\gds\ovary\GSE8157\_NORM_GSM201852.txt	 6
..\gds\ovary\GSE8157\_NORM_GSM201853.txt	 6
..\gds\ovary\GSE8157\_NORM_GSM201863.txt	 6
..\gds\ovary\GSE8157\_NORM_GSM201864.txt	 6
..\gds\ovary\GSE8157\_NORM_GSM201865.txt	 6
..\gds\ovary\GSE8157\_NORM_GSM201866.txt	 6
..\gds\lung\GSE43346\_NORM_GSM1060733.txt	 7
..\gds\lung\GSE43346\_NORM_GSM1060734.txt	 7
..\gds\lung\GSE43346\_NORM_GSM1060735.txt	 7
..\gds\lung\GSE43346\_NORM_GSM1060736.txt	 7
..\gds\lung\GSE43346\_NORM_GSM1060737.txt	 7
..\gds\lung\GSE43346\_NORM_GSM1060738.txt	 7
..\gds\lung\GSE43346\_NORM_GSM1060739.txt	 7
..\gds\lung\GSE43346\_NORM_GSM1060741.txt	 7
..\gds\lung\GSE43346\_NORM_GSM1060745.txt	 7
..\gds\lung\GSE43346\_NORM_GSM1060746.txt	 7
..\gds\lung\GSE43346\_NORM_GSM1060747.txt	 7
..\gds\lung\GSE43346\_NORM_GSM1060748.txt	 7
..\gds\lung\GSE43346\_NORM_GSM1060749.txt	 7
..\gds\lung\GSE43346\_NORM_GSM1060750.txt	 7
..\gds\lung\GSE43346\_NORM_GSM1060751.txt	 7
..\gds\lung\GSE43346\_NORM_GSM1060753.txt	 7
..\gds\lung\GSE43346\_NORM_GSM1060754.txt	 7
..\gds\lung\GSE43346\_NORM_GSM1060755.txt	 7
..\gds\lung\GSE43346\_NORM_GSM1060758.txt	 7
..\gds\lung\GSE43346\_NORM_GSM1060759.txt	 7
..\gds\lung\GSE43346\_NORM_GSM1060760.txt	 7
..\gds\lung\GSE43346\_NORM_GSM1060761.txt	 7
..\gds\lung\GSE43346\_NORM_GSM1060762.txt	 7
..\gds\lung\GSE43346\_NORM_GSM1060764.txt	 7
..\gds\lung\GSE43346\_NORM_GSM1060766.txt	 7
