..\gds\breast\GSE27473\_NORM_GSM678803.txt	 0
..\gds\breast\GSE27473\_NORM_GSM678804.txt	 0
..\gds\breast\GSE27473\_NORM_GSM678805.txt	 0
..\gds\breast\GSE27473\_NORM_GSM678806.txt	 0
..\gds\breast\GSE27473\_NORM_GSM678807.txt	 0
..\gds\breast\GSE27515\_NORM_GSM679719.txt	 0
..\gds\breast\GSE27515\_NORM_GSM679720.txt	 0
..\gds\breast\GSE27515\_NORM_GSM679721.txt	 0
..\gds\breast\GSE27515\_NORM_GSM679722.txt	 0
..\gds\breast\GSE27515\_NORM_GSM679723.txt	 0
..\gds\prostate\GSE22606\_NORM_GSM560830.txt	 1
..\gds\prostate\GSE22606\_NORM_GSM560831.txt	 1
..\gds\prostate\GSE22606\_NORM_GSM560832.txt	 1
..\gds\prostate\GSE22606\_NORM_GSM560833.txt	 1
..\gds\prostate\GSE22606\_NORM_GSM560834.txt	 1
..\gds\prostate\GSE22606\_NORM_GSM560835.txt	 1
..\gds\prostate\GSE22606\_NORM_GSM560836.txt	 1
..\gds\prostate\GSE22606\_NORM_GSM560837.txt	 1
..\gds\prostate\GSE22606\_NORM_GSM560838.txt	 1
..\gds\prostate\GSE22606\_NORM_GSM560839.txt	 1
..\gds\colon\GSE15395\_NORM_GSM386451.txt	 2
..\gds\colon\GSE15395\_NORM_GSM386452.txt	 2
..\gds\colon\GSE15395\_NORM_GSM386453.txt	 2
..\gds\colon\GSE15395\_NORM_GSM386454.txt	 2
..\gds\colon\GSE15395\_NORM_GSM386455.txt	 2
..\gds\colon\GSE15395\_NORM_GSM386456.txt	 2
..\gds\colon\GSE15395\_NORM_GSM386457.txt	 2
..\gds\colon\GSE15395\_NORM_GSM386458.txt	 2
..\gds\colon\GSE18088\_NORM_GSM452148.txt	 2
..\gds\colon\GSE18088\_NORM_GSM452149.txt	 2
..\gds\uterus\GSE17025\_NORM_GSM425911.txt	 3
..\gds\uterus\GSE17025\_NORM_GSM425912.txt	 3
..\gds\uterus\GSE17025\_NORM_GSM425913.txt	 3
..\gds\uterus\GSE17025\_NORM_GSM425914.txt	 3
..\gds\uterus\GSE17025\_NORM_GSM425915.txt	 3
..\gds\uterus\GSE17025\_NORM_GSM425916.txt	 3
..\gds\uterus\GSE17025\_NORM_GSM425917.txt	 3
..\gds\uterus\GSE17025\_NORM_GSM425918.txt	 3
..\gds\uterus\GSE17025\_NORM_GSM425919.txt	 3
..\gds\uterus\GSE17025\_NORM_GSM425920.txt	 3
..\gds\kidney\GSE36895\_NORM_GSM905066.txt	 4
..\gds\kidney\GSE36895\_NORM_GSM905067.txt	 4
..\gds\kidney\GSE36895\_NORM_GSM905068.txt	 4
..\gds\kidney\GSE18632\_NORM_GSM463015.txt	 4
..\gds\kidney\GSE18632\_NORM_GSM463016.txt	 4
..\gds\kidney\GSE18632\_NORM_GSM463017.txt	 4
..\gds\kidney\GSE18632\_NORM_GSM463018.txt	 4
..\gds\kidney\GSE18632\_NORM_GSM463019.txt	 4
..\gds\kidney\GSE18632\_NORM_GSM463020.txt	 4
..\gds\kidney\GSE18632\_NORM_GSM463021.txt	 4
..\gds\lung\GSE43346\_NORM_GSM1060779.txt	 5
..\gds\lung\GSE43346\_NORM_GSM1060780.txt	 5
..\gds\lung\GSE43346\_NORM_GSM1060781.txt	 5
..\gds\lung\GSE43346\_NORM_GSM1060782.txt	 5
..\gds\lung\GSE43346\_NORM_GSM1060783.txt	 5
..\gds\lung\GSE43346\_NORM_GSM1060784.txt	 5
..\gds\lung\GSE43346\_NORM_GSM1060785.txt	 5
..\gds\lung\GSE43346\_NORM_GSM1060786.txt	 5
..\gds\lung\GSE43346\_NORM_GSM1060787.txt	 5
..\gds\lung\GSE6400\_NORM_GSM147367.txt	 5
..\gds\ovary\GSE10946\_NORM_GSM277438.txt	 6
..\gds\ovary\GSE10946\_NORM_GSM277439.txt	 6
..\gds\ovary\GSE10946\_NORM_GSM277440.txt	 6
..\gds\ovary\GSE10946\_NORM_GSM277441.txt	 6
..\gds\ovary\GSE10946\_NORM_GSM277442.txt	 6
..\gds\ovary\GSE10946\_NORM_GSM277443.txt	 6
..\gds\ovary\GSE10946\_NORM_GSM277444.txt	 6
..\gds\ovary\GSE10946\_NORM_GSM277445.txt	 6
..\gds\ovary\GSE8157\_NORM_GSM201854.txt	 6
..\gds\ovary\GSE8157\_NORM_GSM201855.txt	 6
..\gds\lung\GSE43346\_NORM_GSM1060733.txt	 7
..\gds\lung\GSE43346\_NORM_GSM1060734.txt	 7
..\gds\lung\GSE43346\_NORM_GSM1060735.txt	 7
..\gds\lung\GSE43346\_NORM_GSM1060736.txt	 7
..\gds\lung\GSE43346\_NORM_GSM1060737.txt	 7
..\gds\lung\GSE43346\_NORM_GSM1060738.txt	 7
..\gds\lung\GSE43346\_NORM_GSM1060739.txt	 7
..\gds\lung\GSE43346\_NORM_GSM1060741.txt	 7
..\gds\lung\GSE43346\_NORM_GSM1060745.txt	 7
..\gds\lung\GSE43346\_NORM_GSM1060746.txt	 7
